{
  "index": {
    "href": "/",
    "text": "Főoldal"
  },
  "script": {
    "href": "/script",
    "text": "Script"
  },
  "allQuestions": {
    "href": "/allQuestions",
    "text": "Kérdések és tárgyak"
  },
  "userfiles": {
    "href": "/userfiles",
    "text": "ZH-k/Vizsgák, segédanyagok"
  },
  "faq": {
    "href": "/faq",
    "text": "GYIK"
  },
  "contact": {
    "href": "/contact",
    "text": "Kapcsolat"
  },
  "p2pinfo": {
    "href": "/p2pinfo",
    "text": "P2P infó"
  }
}
